5

map_1
NONE

45 675
855 45

2
1
400 300
200 200
255 0 255 255

0
100 300
50 50
0 255 255 255

Map_Ocean
Ocean

45 675
855 45

4
0
221 184
168 282
0 0 0 0

0
585 100
200 170
0 0 0 0

0
459 587
265 418
0 0 0 255

0
578 323
167 436
0 0 0 0

Map_Foret
Foret

45 675
855 45

3
0
728 589
218 256
0 0 0 0

0
658 127
154 166
0 0 0 0

0
173 528
156 147
0 0 0 0

map
NONE

45 675
855 45

2
0
450 265
136 212
255 30 75 255

0
105 48
0 1
255 30 75 255

map
NONE

45 675
855 45

2
0
420 232
77 115
255 30 75 255

0
127 53
2 0
255 30 75 255

